<svg width="16" height="16" viewBox="0 0 16 16" fill="none" xmlns="http://www.w3.org/2000/svg">
<path d="M8 0C8.73333 0 9.44167 0.0944445 10.125 0.283333C10.8083 0.472222 11.4444 0.741667 12.0333 1.09167C12.6222 1.44167 13.1611 1.85833 13.65 2.34167C14.1389 2.825 14.5556 3.36389 14.9 3.95833C15.2444 4.55278 15.5139 5.19167 15.7083 5.875C15.9028 6.55833 16 7.26667 16 8C16 8.73333 15.9056 9.44167 15.7167 10.125C15.5278 10.8083 15.2583 11.4444 14.9083 12.0333C14.5583 12.6222 14.1417 13.1611 13.6583 13.65C13.175 14.1389 12.6361 14.5556 12.0417 14.9C11.4472 15.2444 10.8083 15.5139 10.125 15.7083C9.44167 15.9028 8.73333 16 8 16C7.26667 16 6.55833 15.9056 5.875 15.7167C5.19167 15.5278 4.55556 15.2583 3.96667 14.9083C3.37778 14.5583 2.83889 14.1417 2.35 13.6583C1.86111 13.175 1.44444 12.6361 1.1 12.0417C0.755556 11.4472 0.486111 10.8111 0.291667 10.1333C0.0972222 9.45556 0 8.74444 0 8C0 7.26667 0.0944445 6.55833 0.283333 5.875C0.472222 5.19167 0.741667 4.55556 1.09167 3.96667C1.44167 3.37778 1.85833 2.83889 2.34167 2.35C2.825 1.86111 3.36389 1.44444 3.95833 1.1C4.55278 0.755556 5.18889 0.486111 5.86667 0.291667C6.54445 0.0972222 7.25556 0 8 0ZM8.53333 6.4H7.46667V11.7333H8.53333V6.4ZM8.53333 4.26667H7.46667V5.33333H8.53333V4.26667Z" fill="#8F5E30"/>
</svg>
